{
	"list" : [
		{"id":"XXXXXXXXXXXXXXXXXXXX1", "number":"1XXXXX", "name":"aaa"},
		{"id":"XXXXXXXXXXXXXXXXXXXX2", "number":"2XXXXX", "name":"bbb"},
		{"id":"XXXXXXXXXXXXXXXXXXXX3", "number":"3XXXXX", "name":"ccc"},
		{"id":"XXXXXXXXXXXXXXXXXXXX4", "number":"4XXXXX", "name":"ddd"},
		{"id":"XXXXXXXXXXXXXXXXXXXX5", "number":"5XXXXX", "name":"eee"},
		{"id":"XXXXXXXXXXXXXXXXXXXX6", "number":"6XXXXX", "name":"fff"},
		{"id":"XXXXXXXXXXXXXXXXXXXX7", "number":"7XXXXX", "name":"ggg"},
		{"id":"XXXXXXXXXXXXXXXXXXXX8", "number":"8XXXXX", "name":"hhh"},
		{"id":"XXXXXXXXXXXXXXXXXXXX9", "number":"9XXXXX", "name":"iii"}
	],

	"pagination" : {
		"pageNo"	: 2,
		"pageSize"	: 10,
		"totalPages"	: 32,
		"totalRecords"	: 319
	}
}